%YAML 1.1
%TAG !u! tag:unity3d.com,2011:
--- !u!78 &1
TagManager:
  serializedVersion: 2
  tags: []
  layers:
  - Default
  - TransparentFX
  - Ignore Raycast
  - 
  - Water
  - UI
  - Player
  - Enemy
  - 
  - 
  - 
  - 
  - 
  - 
  - 
  - 
  - 
  - 
  - 
  - 
  - 
  - 
  - 
  - 
  - 
  - 
  - 
  - 
  - 
  - 
  - 
  - 
  m_SortingLayers:
  - name: Background
    uniqueID: 1065160063
    locked: 0
  - name: Ground
    uniqueID: 4021255995
    locked: 0
  - name: Enemy
    uniqueID: 662725685
    locked: 0
  - name: Player
    uniqueID: 2141251523
    locked: 0
  - name: Glass
    uniqueID: 1053005883
    locked: 0
  - name: Default
    uniqueID: 0
    locked: 0
  - name: UI
    uniqueID: 2158240239
    locked: 0
  - name: New Layer
    uniqueID: 1480830151
    locked: 0
